[gd_resource type="SpatialMaterial" load_steps=5 format=2]
[ext_resource path="ScorchMark_albedo.png" type="Texture" id=1]
[ext_resource path="ScorchMark_orm.png" type="Texture" id=2]
[resource]
albedo_color = Color(0, 0, 0, 1)
albedo_texture = ExtResource( 1 )
metallic = 0
roughness = 1
roughness_texture = ExtResource( 2 )
roughness_texture_channel = 1



