<?xml version="1.0" encoding="UTF-8" standalone="no"?>
<!-- Created with Inkscape (http://www.inkscape.org/) -->

<svg
   width="1024"
   height="1024"
   viewBox="0 0 270.93333 270.93333"
   version="1.1"
   id="svg1203"
   inkscape:version="1.1 (c4e8f9ed74, 2021-05-24)"
   sodipodi:docname="Puddle.svg"
   inkscape:export-filename="Puddle_Albedo.png"
   inkscape:export-xdpi="96"
   inkscape:export-ydpi="96"
   xmlns:inkscape="http://www.inkscape.org/namespaces/inkscape"
   xmlns:sodipodi="http://sodipodi.sourceforge.net/DTD/sodipodi-0.dtd"
   xmlns="http://www.w3.org/2000/svg"
   xmlns:svg="http://www.w3.org/2000/svg">
  <sodipodi:namedview
     id="namedview1205"
     pagecolor="#ffffff"
     bordercolor="#666666"
     borderopacity="1.0"
     inkscape:pageshadow="2"
     inkscape:pageopacity="0"
     inkscape:pagecheckerboard="0"
     inkscape:document-units="mm"
     showgrid="false"
     units="px"
     showguides="true"
     inkscape:guide-bbox="true"
     inkscape:zoom="0.60399832"
     inkscape:cx="506.62393"
     inkscape:cy="599.33942"
     inkscape:window-width="1920"
     inkscape:window-height="1051"
     inkscape:window-x="1920"
     inkscape:window-y="0"
     inkscape:window-maximized="1"
     inkscape:current-layer="layer1" />
  <defs
     id="defs1200">
    <filter
       inkscape:collect="always"
       style="color-interpolation-filters:sRGB"
       id="filter1416"
       x="-0.14788942"
       y="-0.13979368"
       width="1.2957788"
       height="1.2795874">
      <feGaussianBlur
         inkscape:collect="always"
         stdDeviation="11.966974"
         id="feGaussianBlur1418" />
    </filter>
  </defs>
  <g
     inkscape:label="Layer 1"
     inkscape:groupmode="layer"
     id="layer1">
    <g
       id="g1414"
       style="mix-blend-mode:normal;filter:url(#filter1416)"
       transform="translate(6.1496409,2.0446845)">
      <circle
         style="fill:#ffffff;stroke:none;stroke-width:7.55906;stroke-linecap:round;stroke-linejoin:round;paint-order:markers stroke fill"
         id="path1286"
         cx="445.89297"
         cy="494.05191"
         r="192.34131"
         transform="matrix(0.26458333,0,0,0.26458333,-28.853967,-47.655841)" />
      <circle
         style="fill:#ffffff;stroke:none;stroke-width:7.55906;stroke-linecap:round;stroke-linejoin:round;paint-order:markers stroke fill"
         id="circle1390"
         cx="445.89297"
         cy="494.05191"
         r="192.34131"
         transform="matrix(0.26458333,0,0,0.26458333,42.263889,-47.655841)" />
      <circle
         style="fill:#ffffff;stroke:none;stroke-width:7.55906;stroke-linecap:round;stroke-linejoin:round;paint-order:markers stroke fill"
         id="circle1392"
         cx="445.89297"
         cy="494.05191"
         r="192.34131"
         transform="matrix(0.26458333,0,0,0.26458333,57.968777,25.076173)" />
      <circle
         style="fill:#ffffff;stroke:none;stroke-width:7.55906;stroke-linecap:round;stroke-linejoin:round;paint-order:markers stroke fill"
         id="circle1394"
         cx="445.89297"
         cy="494.05191"
         r="192.34131"
         transform="matrix(0.26458333,0,0,0.26458333,-9.1066065,33.563719)" />
      <circle
         style="fill:#ffffff;stroke:none;stroke-width:7.55906;stroke-linecap:round;stroke-linejoin:round;paint-order:markers stroke fill"
         id="circle1396"
         cx="445.89297"
         cy="494.05191"
         r="192.34131"
         transform="matrix(0.10524272,0,0,0.10524272,13.592356,126.69187)" />
      <circle
         style="fill:#ffffff;stroke:none;stroke-width:7.55906;stroke-linecap:round;stroke-linejoin:round;paint-order:markers stroke fill"
         id="circle1398"
         cx="445.89297"
         cy="494.05191"
         r="192.34131"
         transform="matrix(0.10524272,0,0,0.10524272,13.592356,126.69187)" />
      <circle
         style="fill:#ffffff;stroke:none;stroke-width:7.55906;stroke-linecap:round;stroke-linejoin:round;paint-order:markers stroke fill"
         id="circle1400"
         cx="445.89297"
         cy="494.05191"
         r="192.34131"
         transform="matrix(0.12587625,0,0,0.12587625,95.956552,151.22205)" />
      <circle
         style="fill:#ffffff;stroke:none;stroke-width:7.55906;stroke-linecap:round;stroke-linejoin:round;paint-order:markers stroke fill"
         id="circle1402"
         cx="445.89297"
         cy="494.05191"
         r="192.34131"
         transform="matrix(0.12587625,0,0,0.12587625,0.71465382,64.384507)" />
    </g>
  </g>
</svg>
